<?xml version="1.0" encoding="UTF-8"?>
<svg width="24px" height="24px" viewBox="0 0 24 24" version="1.1" xmlns="http://www.w3.org/2000/svg" xmlns:xlink="http://www.w3.org/1999/xlink">
    <!-- Generator: Sketch 63.1 (92452) - https://sketch.com -->
    <title>icon/action/today_24px</title>
    <desc>Created with Sketch.</desc>
    <g id="icon/action/today_24px" stroke="none" stroke-width="1" fill="none" fill-rule="evenodd">
        <path d="M17,2 C17.5522847,2 18,2.44771525 18,3 L18,4 L19,4 C20.0543618,4 20.9181651,4.81587779 20.9945143,5.85073766 L21,6 L21,20 C21,21.0543618 20.1841222,21.9181651 19.1492623,21.9945143 L19,22 L5,22 C3.9456382,22 3.08183488,21.1841222 3.00548574,20.1492623 L3,20 L3,6 C3,4.9456382 3.81587779,4.08183488 4.85073766,4.00548574 L5,4 L6,4 L6,4 L6,3 C6,2.44771525 6.44771525,2 7,2 C7.55228475,2 8,2.44771525 8,3 L8,4 L16,4 L16,4 L16,3 C16,2.44771525 16.4477153,2 17,2 Z M19,11 L5,11 L5,20 L19,20 L19,11 Z M9,12 C9.55228475,12 10,12.4477153 10,13 L10,15 C10,15.5522847 9.55228475,16 9,16 L7,16 C6.44771525,16 6,15.5522847 6,15 L6,13 C6,12.4477153 6.44771525,12 7,12 L9,12 Z M19,6 L5,6 L5,9 L19,9 L19,6 Z" id="Combined-Shape" fill="#74818A"></path>
    </g>
</svg>